TP1/TP1a/simulation/qsim/TP1a.msim.vcd
$comment
	File created using the following command:
		vcd file TP1a.msim.vcd -direction
$end
$date
	Fri Nov 22 15:52:10 2024
$end
$version
	ModelSim Version 2020.1
$end
$timescale
	1ps
$end

$scope module tp1a_vhd_vec_tst $end
$var wire 1 ! A [1] $end
$var wire 1 " A [0] $end
$var wire 1 # y $end

$scope module i1 $end
$var wire 1 $ gnd $end
$var wire 1 % vcc $end
$var wire 1 & unknown $end
$var wire 1 ' devoe $end
$var wire 1 ( devclrn $end
$var wire 1 ) devpor $end
$var wire 1 * ww_devoe $end
$var wire 1 + ww_devclrn $end
$var wire 1 , ww_devpor $end
$var wire 1 - ww_A [1] $end
$var wire 1 . ww_A [0] $end
$var wire 1 / ww_y $end
$var wire 1 0 \~QUARTUS_CREATED_GND~I_combout\ $end
$var wire 1 1 \A[1]~input_o\ $end
$var wire 1 2 \A[0]~input_o\ $end
$var wire 1 3 \y~0_combout\ $end
$var wire 1 4 \ALT_INV_A[1]~input_o\ $end
$var wire 1 5 \ALT_INV_A[0]~input_o\ $end
$upscope $end
$upscope $end
$enddefinitions $end
#0
$dumpvars
0#
0$
1%
x&
1'
1(
1)
1*
1+
1,
0/
x0
01
02
03
14
15
0!
0"
0-
0.
$end
#50000
1"
1.
12
05
#100000
0"
1!
0.
1-
11
02
15
04
#150000
1"
1.
12
05
13
1/
1#
#200000
0"
0!
0.
0-
01
02
15
14
03
0/
0#
#250000
1"
1.
12
05
#300000
0"
1!
0.
1-
11
02
15
04
#350000
1"
1.
12
05
13
1/
1#
#400000
0"
0!
0.
0-
01
02
15
14
03
0/
0#
#450000
1"
1.
12
05
#500000
0"
1!
0.
1-
11
02
15
04
#550000
1"
1.
12
05
13
1/
1#
#600000
0"
0!
0.
0-
01
02
15
14
03
0/
0#
#650000
1"
1.
12
05
#700000
0"
1!
0.
1-
11
02
15
04
#750000
1"
1.
12
05
13
1/
1#
#800000
0"
0!
0.
0-
01
02
15
14
03
0/
0#
#850000
1"
1.
12
05
#900000
0"
1!
0.
1-
11
02
15
04
#950000
1"
1.
12
05
13
1/
1#
